wordclouds for Birgitte Gøye
…
# Remove numeric words
all_words_clean_no_numeric <- all_words_clean %>% 
  filter(!str_detect(word, "^\\d+$"))

Wordcloud for Gøye The following codes is made by Max Odsbjerg
Pedersen, but we have modified it for our purposes.

all_words_clean_no_numeric %>% 
  count(word) %>% 
  arrange(-n)

## # A tibble: 571 × 2
##    word              n
##    <chr>         <int>
##  1 gode             29
##  2 gøye             16
##  3 gud              15
##  4 gyldenstjerne    15
##  5 trolle           15
##  6 peder            14
##  7 herluf           13
##  8 mogens           13
##  9 orig             10
## 10 magnus            9
## # ℹ 561 more rows

Frequenceanalysis with wordcloud

all_words_clean_no_numeric %>% 
  count(word, file, sort=TRUE)

## # A tibble: 900 × 3
##    word    file                 n
##    <chr>   <chr>            <int>
##  1 moder   brev_gøye-01.pdf     5
##  2 peder   brev_gøye-02.pdf     5
##  3 gode    brev_gøye-03.pdf     4
##  4 gode    brev_gøye-04.pdf     4
##  5 gode    brev_gøye-08.pdf     4
##  6 gode    brev_gøye-09.pdf     4
##  7 gode    brev_gøye-10.pdf     4
##  8 gud     brev_gøye-01.pdf     4
##  9 gud     brev_gøye-08.pdf     4
## 10 mangnus brev_gøye-03.pdf     4
## # ℹ 890 more rows
…
all_words_clean_no_numeric %>% 
  count(word, file, sort=TRUE) %>% 
  left_join(total_words, by="file") ->all_words_clean_no_numeric_count

all_words_clean_no_numeric_count %>% 
  bind_tf_idf(word,file,n)->all_words_tf_idf

We do not see any interesting words, because R lists all the words in
an ascending order. Instead, we will ask it to list them in a descending
order – highest to lowest tf_idf:

all_words_tf_idf %>% 
  arrange(desc(tf_idf))

## # A tibble: 900 × 7
##    word                file                 n total     tf   idf tf_idf
##    <chr>               <chr>            <int> <int>  <dbl> <dbl>  <dbl>
##  1 friis               brev_gøye-06.pdf     2    26 0.0769  1.70 0.131 
##  2 moder               brev_gøye-01.pdf     5   127 0.0394  2.40 0.0944
##  3 enke                brev_gøye-06.pdf     1    26 0.0385  2.40 0.0922
##  4 gabriel             brev_gøye-06.pdf     1    26 0.0385  2.40 0.0922
##  5 helligtrekongersdag brev_gøye-06.pdf     1    26 0.0385  2.40 0.0922
##  6 ærender             brev_gøye-06.pdf     1    26 0.0385  2.40 0.0922
##  7 gretthe             brev_gøye-02.pdf     3    81 0.0370  2.40 0.0888
##  8 herloff             brev_gøye-02.pdf     3    81 0.0370  2.40 0.0888
##  9 dorte               brev_gøye-07.pdf     1    31 0.0323  2.40 0.0774
## 10 jakob               brev_gøye-07.pdf     1    31 0.0323  2.40 0.0774
## # ℹ 890 more rows
…
