Wordclouds Birgitte Bølle
…
# Remove numeric words
all_words_clean_no_numeric <- all_words_clean %>% 
  filter(!str_detect(word, "^\\d+$"))

Wordcloud for Bølle The following codes is made by Max Odsbjerg
Pedersen, but we have modified it for our purposes.

all_words_clean_no_numeric %>% 
  count(word) %>% 
  arrange(-n)

## # A tibble: 748 × 2
##    word           n
##    <chr>      <int>
##  1 søster        43
##  2 gud           22
##  3 beder         16
##  4 tyll          15
##  5 hierte        12
##  6 kristoffer    11
##  7 gøje          10
##  8 guode          8
##  9 mand           8
## 10 broder         7
## # ℹ 738 more rows

Frequence analysis with wordcloud

all_words_clean_no_numeric %>% 
  count(word, file, sort=TRUE)

## # A tibble: 1,086 × 3
##    word   file                  n
##    <chr>  <chr>             <int>
##  1 søster brev_bølle-04.pdf    10
##  2 søster brev_bølle-05.pdf     9
##  3 søster brev_bølle-01.pdf     8
##  4 søster brev_bølle-02.pdf     8
##  5 søster brev_bølle-03.pdf     8
##  6 beder  brev_bølle-07.pdf     6
##  7 gud    brev_bølle-05.pdf     5
##  8 gudz   brev_bølle-05.pdf     5
##  9 hierte brev_bølle-07.pdf     5
## 10 tyll   brev_bølle-04.pdf     5
## # ℹ 1,076 more rows
…
all_words_clean_no_numeric %>% 
  count(word, file, sort=TRUE) %>% 
  left_join(total_words, by="file") ->all_words_clean_no_numeric_count

all_words_clean_no_numeric_count %>% 
  bind_tf_idf(word,file,n)->all_words_tf_idf

We do not see any interesting words, because R lists all the words in
an ascending order. Instead, we will ask it to list them in a descending
order – highest to lowest tf_idf:

all_words_tf_idf %>% 
  arrange(desc(tf_idf))

## # A tibble: 1,086 × 7
##    word     file                  n total     tf   idf tf_idf
##    <chr>    <chr>             <int> <int>  <dbl> <dbl>  <dbl>
##  1 thynn    brev_bølle-04.pdf     4   169 0.0237 2.08  0.0492
##  2 mølle    brev_bølle-08.pdf     4   193 0.0207 2.08  0.0431
##  3 stenn    brev_bølle-08.pdf     4   193 0.0207 2.08  0.0431
##  4 gudz     brev_bølle-05.pdf     5   162 0.0309 1.39  0.0428
##  5 skaltt   brev_bølle-04.pdf     3   169 0.0178 2.08  0.0369
##  6 hierte   brev_bølle-06.pdf     3    89 0.0337 0.981 0.0331
##  7 mand     brev_bølle-06.pdf     3    89 0.0337 0.981 0.0331
##  8 bedendis brev_bølle-08.pdf     3   193 0.0155 2.08  0.0323
##  9 uell     brev_bølle-06.pdf     2    89 0.0225 1.39  0.0312
## 10 nogit    brev_bølle-07.pdf     3   210 0.0143 2.08  0.0297
## # ℹ 1,076 more rows
…
